[start]
20160101	0	20300101	0	50700	999999	0	0	1	1	0	150	0	0	0	0	7500	0	2000	0	500	0	0	0	Some Cats only appear here! All Cats here are Rare or above.
20180109	1100	20300101	1100	50700	999999	0	0	0	1	0	0	0	0	10000	0	0	0	0	0	0	0	0	0	
20170101	0	20300101	0	50700	999999	0	0	2	2	0	30	0	0	0	0	7500	0	2000	0	500	0	0	0		0	30	0	0	0	0	7500	0	2000	0	500	0	0	0	
20170101	0	20300101	0	50700	999999	0	0	3	2	0	75	0	0	0	0	7500	0	2000	0	500	0	0	0		0	75	0	0	0	0	7500	0	2000	0	500	0	0	0	
20181013	1100	20300101	1100	70400	999999	0	0	1	4	-1	150	0	0	0	0	7500	0	2000	0	500	0	0	0		-1	150	0	0	0	0	7500	0	2000	0	500	0	0	0		-1	150	0	0	0	0	7500	0	2000	0	500	0	0	0		320	0	0	0	0	0	0	0	0	0	10000	0	0	0	Get an Uber Rare Cat!! 100% Uber drop Rate in the PLATINUM CAPSULES!
20191012	1100	20300101	1100	80900	999999	0	0	1	4	-1	150	0	0	0	0	7500	0	2000	0	500	0	0	0		-1	150	0	0	0	0	7500	0	2000	0	500	0	0	0		-1	150	0	0	0	0	7500	0	2000	0	500	0	0	0		401	0	0	0	0	0	0	0	0	0	10000	0	0	0	Get an Uber Rare Cat!! 100% Uber drop Rate in the PLATINUM CAPSULES!
20191029	1100	20300101	1100	80900	999999	0	0	1	4	-1	0	0	0	0	0	0	0	0	0	0	0	0	0		-1	0	0	0	0	0	0	0	0	0	0	0	0	0		-1	0	0	0	0	0	0	0	0	0	0	0	0	0		407	0	0	0	0	0	0	0	0	0	10000	0	0	0	Get an Uber Rare Cat!! 100% Uber drop Rate in the PLATINUM CAPSULES!
20191129	1100	20300101	1100	90000	999999	0	0	1	4	-1	0	0	0	0	0	0	0	0	0	0	0	0	0		-1	0	0	0	0	0	0	0	0	0	0	0	0	0		-1	0	0	0	0	0	0	0	0	0	0	0	0	0		413	0	0	0	0	0	0	0	0	0	10000	0	0	0	Get an Uber Rare Cat!! 100% Uber drop Rate in the PLATINUM CAPSULES!
20191202	1100	20191204	1100	90000	999999	0	0	1	1	402	150	0	0	0	0	6970	0	2500	0	500	0	30	0	Myrcia is here to grant you her powers! ★ Tap banner for more info!
20191202	1100	20191209	1100	90000	999999	0	0	0	2	-1	0	0	0	0	0	0	0	0	0	0	0	0	0		3	0	300	0	400	0	2000	0	7000	0	600	0	0	0	Limited Capsules ★ Collect Catfruit by drawing from this set!
20191204	1100	20191206	1100	90000	999999	0	0	1	1	362	150	0	0	0	0	6970	0	2500	0	500	0	30	0	★ Ultra Souls ★ Mythical Uber Cats, with a new mystery member?!
20191206	1100	20191209	1100	90000	999999	0	0	1	1	411	150	0	0	0	0	6500	0	2600	0	900	0	0	0	Uberfest is here! ★ Extra-high Uber drop rate for every draw!
20191209	1100	20191211	1100	90000	999999	0	0	1	1	245	150	0	4	0	0	7000	0	2500	0	500	0	0	0	★ Red Busters w/ Pai-Pai! ★ Plus Increasing Capsules!
20191209	1100	20191211	1100	90000	999999	0	0	1	2	-1	0	0	0	0	0	0	0	0	0	0	0	0	0		246	150	0	4	0	0	7000	0	2500	0	500	0	0	0	AIR BUSTERS plus R.E.I ★ With Increasing Capsules discount!
20191209	1100	20191216	1100	90000	999999	0	0	0	2	-1	0	0	0	0	0	0	0	0	0	0	0	0	0		5	0	0	2	500	0	7000	0	2000	0	500	0	0	0	★ Limited Capsules ★ Pick up extra Catseyes in this special Capsule set!
20191211	1100	20191213	1100	90000	999999	0	0	1	1	380	150	0	0	0	0	6970	0	2500	0	500	0	30	0	★ Elemental Pixies ★ Cosmic powers brought to life, with a mystery elemental!
20191213	1100	20191216	1100	90000	999999	0	0	1	1	412	150	0	0	0	0	6500	0	2600	0	900	0	0	0	D'arktanyan is here! ★ Plus higher drop rate for Uber Rares!
20191216	1100	20191218	1100	90000	999999	0	0	1	1	392	150	0	0	0	0	6970	0	2500	0	500	0	30	0	The Almighties ★ Supreme beings of Catkind, with a hidden Almighty!
20191216	1100	20200102	000	90000	999999	0	0	0	4	-1	0	0	0	0	0	0	0	0	0	0	0	0	0		-1	0	0	0	0	0	0	0	0	0	0	0	0	0		-1	0	0	0	0	0	0	0	0	0	0	0	0	0		35	0	300	0	0	0	5100	0	3500	0	1400	0	0	0	【Limited Event】 Special chance for XP and Catamins! ★ On thru 1/1!
20191218	1100	20191220	1100	90000	999999	0	0	1	1	384	150	0	0	0	0	6970	0	2500	0	500	0	30	0	Dark Heroes ★ Defend justice with Uber Cats, plus a hidden Legend!
[end]
