[start]
20160101	0	20300101	0	50700	999999	0	0	1	1	0	150	0	0	0	0	7500	0	2000	0	500	0	0	0	Some Cats only appear here! All Cats here are Rare or above.
20180109	1100	20300101	1100	50700	999999	0	0	0	1	0	0	0	0	10000	0	0	0	0	0	0	0	0	0	
20170101	0	20300101	0	80200	999999	0	0	2	3	0	30	0	0	0	0	7500	0	2000	0	500	0	0	0		0	30	0	0	0	0	7500	0	2000	0	500	0	0	0		0	30	0	0	0	0	7500	0	2000	0	500	0	0	0	
20170101	0	20300101	0	80200	999999	0	0	3	3	0	75	0	0	0	0	7500	0	2000	0	500	0	0	0		0	75	0	0	0	0	7500	0	2000	0	500	0	0	0		0	75	0	0	0	0	7500	0	2000	0	500	0	0	0	
20191223	1100	20300101	1100	90100	999999	0	0	1	4	-1	0	0	0	0	0	0	0	0	0	0	0	0	0		-1	0	0	0	0	0	0	0	0	0	0	0	0	0		-1	0	0	0	0	0	0	0	0	0	0	0	0	0		471	0	0	0	0	0	0	0	0	0	10000	0	0	0	Get an Uber Rare Cat!! 100% Uber drop Rate in the PLATINUM CAPSULES!
20200111	1100	20300101	1100	90100	999999	0	0	1	4	-1	0	0	0	0	0	0	0	0	0	0	0	0	0		-1	0	0	0	0	0	0	0	0	0	0	0	0	0		-1	0	0	0	0	0	0	0	0	0	0	0	0	0		480	0	0	0	0	0	0	0	0	0	10000	0	0	0	Get an Uber Rare Cat!! 100% Uber drop Rate in the PLATINUM CAPSULES!
20200204	1100	20200219	0	90200	999999	0	0	0	3	-1	0	0	0	0	0	0	0	0	0	0	0	0	0		-1	0	0	0	0	0	0	0	0	0	0	0	0	0		40	0	0	0	0	0	7400	0	2100	0	500	0	0	0	【Limited】 Collect Li'l Cats only during this event!★ Thru February 18th!
20200204	1100	20200207	1100	90200	999999	0	0	1	1	454	150	0	3848	0	0	7000	0	2500	0	500	0	0	0	Spooky beauties from the netherworld! It's the GIRLS & MONSTERS!
20200205	1100	20200212	1100	90200	999999	0	0	0	2	-1	0	0	0	0	0	0	0	0	0	0	0	0	0		5	0	0	2	500	0	7000	0	2000	0	500	0	0	0	★ Limited Capsules ★ Pick up extra Catseyes in this special Capsule set!
20200207	1100	20200210	1100	90200	999999	0	0	1	1	451	150	0	3852	0	0	7000	0	2500	0	500	0	0	0	★ Red Busters w/ Pai-Pai! ★ Plus Increasing Capsules!
20200207	1100	20200210	1100	90200	999999	0	0	1	2	-1	0	0	0	0	0	0	0	0	0	0	0	0	0		452	150	0	3852	0	0	7000	0	2500	0	500	0	0	0	AIR BUSTERS plus R.E.I ★ With Increasing Capsules discount!
20200207	1100	20200210	1100	90200	999999	0	0	1	3	-1	0	0	0	0	0	0	0	0	0	0	0	0	0		-1	0	0	0	0	0	0	0	0	0	0	0	0	0		453	150	0	3852	0	0	7000	0	2500	0	500	0	0	0	Metal Busters! With Sakura Sonic & Increasing Capsules discount!
20200210	1100	20200224	1100	90200	999999	0	0	1	1	485	150	0	3848	0	0	7000	0	2500	0	500	0	0	0	Survive! Mola Mola! Collab Capsules! ★ Tap the banner for info!
20200210	1100	20200212	1100	90200	999999	0	0	1	2	-1	0	0	0	0	0	0	0	0	0	0	0	0	0		445	150	0	3848	0	0	6970	0	2500	0	500	0	30	0	Ultimate Cat artillery, with a top-secret Legend?! ★ Tap banner for info!
20200212	1100	20200214	1100	90200	999999	0	0	1	2	-1	0	0	0	0	0	0	0	0	0	0	0	0	0		430	150	0	3848	0	0	6970	0	2500	0	500	0	30	0	Galaxy Gals, here from the future to win the day! ★ Tap banner for info!
20200214	1100	20200217	1100	90200	999999	0	0	1	2	-1	0	0	0	0	0	0	0	0	0	0	0	0	0		479	150	0	3848	0	0	6500	0	2600	0	900	0	0	0	D'arktanyan is here! ★ Plus higher drop rate for Uber Rares!
20200216	1100	20200302	000	90200	999999	0	0	0	4	-1	0	0	0	0	0	0	0	0	0	0	0	0	0		-1	0	0	0	0	0	0	0	0	0	0	0	0	0		-1	0	0	0	0	0	0	0	0	0	0	0	0	0		38	0	300	0	0	0	5100	0	3500	0	1400	0	0	0	【Limited Event】 Special chance for XP and Catamins! ★ On thru 3/1!
[end]
