[start]
20180109	1100	20300101	1100	50700	999999	0	0	0	1	0	0	0	0	10000	0	0	0	0	0	0	0	0	0	
20160101	0	20300101	0	50700	999999	0	0	1	1	0	150	0	0	0	0	7500	0	2000	0	500	0	0	0	只有從這個轉蛋才能拿到的限定角色等著你喔！
20170101	0	20300101	0	80200	999999	0	0	2	3	0	30	0	0	0	0	7500	0	2000	0	500	0	0	0		0	30	0	0	0	0	7500	0	2000	0	500	0	0	0		0	30	0	0	0	0	7500	0	2000	0	500	0	0	0	
20170101	0	20300101	0	80200	999999	0	0	3	3	0	75	0	0	0	0	7500	0	2000	0	500	0	0	0		0	75	0	0	0	0	7500	0	2000	0	500	0	0	0		0	75	0	0	0	0	7500	0	2000	0	500	0	0	0	
20181013	1100	20300101	1100	70400	999999	0	0	1	4	-1	150	0	0	0	0	7500	0	2000	0	500	0	0	0		-1	150	0	0	0	0	7500	0	2000	0	500	0	0	0		-1	150	0	0	0	0	7500	0	2000	0	500	0	0	0		320	0	0	0	0	0	0	0	0	0	10000	0	0	0	必出超激稀有角色的白金轉蛋！快來獲得心儀的貓咪吧！
20190716	1100	20190802	0	80600	999999	0	0	0	3	-1	150	0	0	0	0	7500	0	2000	0	500	0	0	0		-1	150	0	0	0	0	7500	0	2000	0	500	0	0	0		28	0	0	0	0	0	5100	0	3500	0	1400	0	0	0	限時開放★能夠獲得喵力達與XP的特別轉蛋！★8月1日為止！
20190718	1100	20190801	1100	80700	999999	0	0	1	1	391	150	0	0	0	0	7000	0	2500	0	500	0	0	0	各種「福音戰士」合作活動角色登場！★點圖可以看詳細內容喔！
20190721	1500	20190801	1100	80700	999999	0	0	1	1	391	150	0	0	0	0	7000	0	2500	0	500	1	0	0	各種「福音戰士」合作活動角色登場！★11連轉超激確定活動中！
20190721	1500	20190801	1100	80700	999999	0	0	0	2	-1	150	0	0	0	0	7500	0	2000	0	500	0	0	0		3	0	300	0	400	0	2000	0	7000	0	600	0	0	0	限時開放★有機會入手貓薄荷的活動限定特別轉蛋！
20190729	1100	20190801	1100	80700	999999	0	0	1	1	391	150	0	0	0	0	7000	0	2500	0	500	1	0	0	最後機會！「福音戰士」合作轉蛋！★11連轉超激確定活動中！
20190729	1100	20190801	1100	80700	999999	0	0	1	2	-1	150	0	0	0	0	6970	0	2500	0	500	0	30	0		354	150	0	0	0	0	7000	0	2500	0	500	1	0	0	從異世界被召喚來的怪物美少女★11連轉超激確定活動中！
20190729	1100	20190801	1100	80700	999999	0	0	1	3	-1	150	0	0	0	0	7500	0	2000	0	500	0	0	0		-1	150	0	0	0	0	7500	0	2000	0	500	0	0	0		252	150	0	0	0	0	7000	0	2500	0	500	1	0	0	含有限定角色的特別仕樣轉蛋！★11連轉超激確定活動中！
20190801	1100	20190812	1100	80700	999999	0	0	0	2	-1	150	0	0	0	0	7500	0	2000	0	500	0	0	0		5	0	0	2	500	0	7000	0	2000	0	500	0	0	0	限時開放★高機率獲得各種貓眼石的活動限定特別轉蛋！
20190801	1100	20190804	1100	80700	999999	0	0	1	1	360	150	0	0	0	0	6500	0	2600	0	900	0	0	0	超強的限定角色「幼傑達太貓」登場！★超激出現率大幅上升！
20190804	1100	20190807	1100	80700	999999	0	0	1	1	369	150	0	0	0	0	6970	0	2500	0	500	1	30	0	具備各種獨特能力的貓咪們！還有新神秘角色！？★11連轉超激確定活動中！
20190807	1100	20190810	1100	80700	999999	0	0	1	1	330	150	0	0	0	0	6970	0	2500	0	500	1	30	0	掃黑專家的戰國武將來了！神秘角色新登場！？★11連轉超激確定活動中！
20190807	1100	20190812	1100	80700	999999	0	0	1	2	-1	150	0	0	0	0	7500	0	2000	0	500	0	0	0		389	150	0	0	0	0	7000	0	2500	0	500	1	0	0	小小瓦爾基麗貓也會登場！特別仕樣轉蛋限定！★11連轉超激確定活動中！
20190810	1100	20190812	1100	80700	999999	0	0	1	1	377	150	0	0	0	0	6970	0	2500	0	500	1	30	0	貓咪軍團珍藏的超級武器！神秘角色新登場！？★11連轉超激確定活動中！
[end]
