[start]
20180109	1100	20300101	0	60700	999999	0	0	0	1	0	0	0	0	10000	0	0	0	0	0	0	0	0	0	
20160101	0	20300101	0	50700	999999	0	0	1	1	0	150	0	0	0	0	7500	0	2000	0	500	0	0	0	ここでしか手に入らないキャラクターが必ず出現！しかもレアキャラ以上確定!!
20180101	0	20300101	0	50700	999999	0	0	2	2	33	30	0	0	0	0	7500	0	2000	0	500	0	0	0		23	30	0	0	0	0	7500	0	2000	0	500	0	0	0	
20180101	0	20300101	0	50700	999999	0	0	3	2	33	75	0	0	0	0	7500	0	2000	0	500	0	0	0		23	75	0	0	0	0	7500	0	2000	0	500	0	0	0	
20180915	1100	20300101	0	70400	999999	0	0	1	4	-1	150	0	0	0	0	7500	0	2000	0	500	0	0	0		-1	150	0	0	0	0	7500	0	2000	0	500	0	0	0		-1	150	0	0	0	0	7500	0	2000	0	500	0	0	0		320	0	0	0	0	0	0	0	0	0	10000	0	0	0	超激レアのキャラクターが必ず１体手に入る「プラチナガチャ」！
20190616	1100	20190701	2359	80600	999999	0	0	0	4	-1	150	0	0	0	0	7500	0	2000	0	500	0	0	0		-1	150	0	0	0	0	7500	0	2000	0	500	0	0	0		-1	150	0	0	0	0	7500	0	2000	0	500	0	0	0		27	0	300	0	0	0	5100	0	3500	0	1400	0	0	0	【期間限定】ネコビタンとXPが手に入る特別仕様ガチャ！★7月1日まで！
20190624	1100	20190701	1100	80600	999999	0	0	0	2	-1	150	0	0	0	0	7500	0	2000	0	500	0	0	0		5	0	0	2	500	0	7000	0	2000	0	500	0	0	0	高確率でキャッツアイが手に入るイベント限定特別ガチャ！　7月1日11時まで！
20190626	1100	20190628	1100	80600	999999	0	0	1	1	372	150	0	0	0	0	6970	0	2500	0	500	0	30	0	謎だらけのキモかわ生命体！シークレット新参戦！？★詳細はバナーをタップ!!
20190628	1100	20190701	1100	80700	999999	0	0	1	1	360	150	0	0	0	0	6500	0	2600	0	900	0	0	0	強力な限定キャラ「幼傑ダルターニャ」も参戦！★超激レア出現率が今だけ超アップ!!
20190701	1100	20190715	1100	80700	999999	0	0	1	1	390	150	0	0	0	0	7000	0	2500	0	500	0	0	0	【期間限定】『ケリ姫スイーツ』コラボガチャ！★詳細はバナーをタップ!!
20190701	1100	20190703	1100	80700	999999	0	0	1	2	-1	150	0	0	0	0	7500	0	2000	0	500	0	0	0		331	150	0	0	0	0	6970	0	2500	0	500	0	30	0	黒い敵に強力効果のバサラーズ！シークレット武将新参戦！？★詳細はバナーをタップ!!
20190703	1100	20190705	1100	80700	999999	0	0	1	2	-1	150	0	0	0	0	7500	0	2000	0	500	0	0	0		378	150	0	0	0	0	6970	0	2500	0	500	0	30	0	にゃんこ軍団秘蔵の超兵器達！シークレット新参戦！？★詳細はバナーをタップ!!
20190705	1100	20190707	1100	80700	999999	0	0	1	2	-1	150	0	0	0	0	7500	0	2000	0	500	0	0	0		355	150	0	0	0	0	7000	0	2500	0	500	0	0	0	異世界より召喚された愉快なモンスター美少女達！★詳細はバナーをタップ!!
20190707	1100	20190709	1100	80700	999999	0	0	1	2	-1	150	0	0	0	0	7500	0	2000	0	500	0	0	0		334	150	0	0	0	0	6970	0	2500	0	500	0	30	0	パワフルでキュートな電脳少女達！シークレット新参戦！？★詳細はバナーをタップ!!
20190709	1100	20190711	1100	80700	999999	0	0	1	2	-1	150	0	0	0	0	7500	0	2000	0	500	0	0	0		338	150	0	0	0	0	6970	0	2500	0	500	0	30	0	圧倒的な存在感を放つドラゴン達！シークレット新参戦！？★詳細はバナーをタップ!!
[end]
