[start]
20180109	1100	20300101	0	60700	999999	0	0	0	1	0	0	0	0	10000	0	0	0	0	0	0	0	0	0	
20160101	0	20300101	0	50700	999999	0	0	1	1	0	150	0	0	0	0	7500	0	2000	0	500	0	0	0	ここでしか手に入らないキャラクターが必ず出現！しかもレアキャラ以上確定!!
20180101	0	20300101	0	50700	999999	0	0	2	2	33	30	0	0	0	0	7500	0	2000	0	500	0	0	0		23	30	0	0	0	0	7500	0	2000	0	500	0	0	0	
20180101	0	20300101	0	50700	999999	0	0	3	2	33	75	0	0	0	0	7500	0	2000	0	500	0	0	0		23	75	0	0	0	0	7500	0	2000	0	500	0	0	0	
20180915	1100	20300101	0	70400	999999	0	0	1	4	-1	150	0	0	0	0	7500	0	2000	0	500	0	0	0		-1	150	0	0	0	0	7500	0	2000	0	500	0	0	0		-1	150	0	0	0	0	7500	0	2000	0	500	0	0	0		320	0	0	0	0	0	0	0	0	0	10000	0	0	0	超激レアのキャラクターが必ず１体手に入る「プラチナガチャ」！
20190529	1100	20190612	1100	80600	999999	0	0	1	1	387	150	0	0	0	0	7000	0	2500	0	500	0	0	0	【期間限定】新キャラ追加！『消滅都市0.』コラボガチャ★詳細はバナーをタップ!!
20190605	1100	20190607	1100	80600	999999	0	0	1	2	-1	150	0	0	0	0	7000	0	2500	0	500	0	0	0	【期間限定】新キャラ追加！『消滅都市0.』コラボガチャ★詳細はバナーをタップ!!	330	150	0	0	0	0	6970	0	2500	0	500	0	30	0	黒い敵に強力効果のバサラーズ！シークレット武将新参戦！？★詳細はバナーをタップ!!
20190607	1100	20190608	1100	80600	999999	0	0	1	2	-1	150	0	0	0	0	7000	0	2500	0	500	0	0	0	【期間限定】新キャラ追加！『消滅都市0.』コラボガチャ★詳細はバナーをタップ!!	377	150	0	0	0	0	6970	0	2500	0	500	0	30	0	にゃんこ軍団秘蔵の超兵器達！シークレット新参戦！？★詳細はバナーをタップ!!
20190610	1100	20190624	2359	80600	999999	0	0	0	3	-1	150	0	0	0	0	7500	0	2000	0	500	0	0	0		-1	150	0	0	0	0	7500	0	2000	0	500	0	0	0		26	0	0	0	0	0	7400	0	2100	0	500	0	0	0	【期間限定】ちびネコ達が手に入る特別仕様のイベントガチャ！★6月24日まで！
20190616	1100	20190701	2359	80600	999999	0	0	0	4	-1	150	0	0	0	0	7500	0	2000	0	500	0	0	0		-1	150	0	0	0	0	7500	0	2000	0	500	0	0	0		-1	150	0	0	0	0	7500	0	2000	0	500	0	0	0		27	0	300	0	0	0	5100	0	3500	0	1400	0	0	0	【期間限定】ネコビタンとXPが手に入る特別仕様ガチャ！★7月1日まで！
20190608	1100	20190612	1100	80600	999999	0	0	1	1	387	150	0	0	0	0	7000	0	2500	0	500	1	0	0	【終了間近】新キャラ追加！『消滅都市0.』コラボガチャ★11連で超激レア確定!!
20190610	1100	20190612	1100	80600	999999	0	0	1	1	387	150	0	3624	0	0	7000	0	2500	0	500	1	0	0	【終了間近】新キャラ追加！『消滅都市0.』コラボガチャ★11連で超激レア確定!!
20190608	1100	20190610	1100	80600	999999	0	0	1	2	-1	150	0	0	0	0	7000	0	2500	0	500	0	0	0		333	150	0	0	0	0	6970	0	2500	0	500	1	30	0	パワフルでキュートな電脳少女達！シークレット新参戦！？★詳細はバナーをタップ!!
20190610	1100	20190612	1100	80600	999999	0	0	1	2	-1	150	0	0	0	0	7000	0	2500	0	500	0	0	0		336	150	0	3624	0	0	6970	0	2500	0	500	1	30	0	圧倒的な存在感を放つドラゴン達！シークレット新参戦！？★詳細はバナーをタップ!!
20190612	1100	20190614	1100	80600	999999	0	0	1	1	380	150	0	3624	0	0	6970	0	2500	0	500	0	30	0	個性的で愉快な精霊を仲間にしよう！シークレット新参戦！？★詳細はバナーをタップ!!
20190614	1100	20190617	1100	80600	999999	0	0	1	1	361	150	0	3624	0	0	6500	0	2600	0	900	0	0	0	限定キャラ「影傑ダークダルターニャ」も参戦！★超激レア出現率が今だけ超アップ!!
20190617	1100	20190619	1100	80600	999999	0	0	1	1	369	150	0	3624	0	0	6970	0	2500	0	500	0	30	0	世界一即戦力になるにゃんこ達！シークレット新参戦！？★詳細はバナーをタップ!!
20190619	1100	20190621	1100	80600	999999	0	0	1	1	345	150	0	3624	0	0	7000	0	2500	0	500	0	0	0	にゃんこワールドの偉大なる神々、ここに集結！★詳細はバナーをタップ!!
[end]
